<?xml version="1.0" encoding="utf-8"?>
<!-- Generator: Adobe Illustrator 24.2.1, SVG Export Plug-In . SVG Version: 6.00 Build 0)  -->
<svg version="1.1" id="Layer_1" xmlns="http://www.w3.org/2000/svg" xmlns:xlink="http://www.w3.org/1999/xlink" x="0px" y="0px"
	 viewBox="0 0 576 40" style="enable-background:new 0 0 576 40;" xml:space="preserve">
<style type="text/css">
	.st0{fill:#8D8D8D;}
</style>
<g>
	<rect id="Rectangle_249" x="52" y="4.9" class="st0" width="3" height="30.3"/>
	<rect id="Rectangle_443" x="89" y="4.9" class="st0" width="3" height="30.3"/>
	<rect id="Rectangle_444" x="127" y="4.9" class="st0" width="3" height="30.3"/>
	<rect id="Rectangle_445" x="164" y="4.9" class="st0" width="3" height="30.3"/>
	<rect id="Rectangle_446" x="200" y="4.9" class="st0" width="3" height="30.3"/>
	<rect id="Rectangle_447" x="237" y="4.9" class="st0" width="3" height="30.3"/>
	<rect id="Rectangle_448" x="277" y="4.9" class="st0" width="3" height="30.3"/>
	<rect id="Rectangle_449" x="316" y="4.9" class="st0" width="3" height="30.3"/>
	<rect id="Rectangle_450" x="352" y="4.9" class="st0" width="3" height="30.3"/>
	<rect id="Rectangle_451" x="391" y="4.9" class="st0" width="3" height="30.3"/>
	<rect id="Rectangle_452" x="428" y="4.9" class="st0" width="3" height="30.3"/>
	<rect id="Rectangle_453" x="465" y="4.9" class="st0" width="3" height="30.3"/>
	<rect id="Rectangle_454" x="502" y="4.9" class="st0" width="3" height="30.3"/>
	<rect id="Rectangle_458" x="538" y="4.9" class="st0" width="3" height="30.3"/>
</g>
<g id="Group_602">
	<g id="Group_597">
		<g id="Group_543" transform="translate(-8 -7)">
			<rect id="Rectangle_62" x="8" y="7" class="st0" width="3" height="40"/>
		</g>
		<g id="Group_596">
			<path id="Path_387" class="st0" d="M2.5,20c0-0.6,0.4-1,1-1h571.4c0.6,0,1,0.4,1,1s-0.4,1-1,1H3.5C3,21,2.5,20.6,2.5,20z"/>
		</g>
		<rect id="Rectangle_63" x="573" class="st0" width="3" height="40"/>
	</g>
</g>
</svg>
